<svg width="41" height="24" viewBox="0 0 41 24" fill="none" xmlns="http://www.w3.org/2000/svg">
<mask id="mask0_10677_3850" style="mask-type:luminance" maskUnits="userSpaceOnUse" x="1" y="0" width="40" height="24">
<path d="M41.0006 0.959961H1.23633V23.1812H41.0006V0.959961Z" fill="white"/>
</mask>
<g mask="url(#mask0_10677_3850)">
<path d="M1.23633 11.7648V0.962659H3.24912L8.53847 7.68964H8.68224V0.959961H10.9825V11.762H8.99422L3.68332 5.00263H3.53954V11.7648H1.23633Z" fill="black"/>
<path d="M20.5827 11.7656H12.9629V0.963623H20.5827V2.89314H15.3682V5.41541H20.288V7.20586H15.3682V9.83344H20.5827V11.7656Z" fill="black"/>
<path d="M25.0912 11.7648V2.89218H21.6406V0.959961H30.9454V2.89218H27.495V11.7648H25.0912Z" fill="black"/>
<path d="M1.23633 21.074V13.7947H4.62501C4.96518 13.7907 5.30417 13.833 5.63141 13.9203C5.90473 13.9942 6.16045 14.1166 6.38477 14.2808C6.58776 14.4334 6.74978 14.6286 6.85779 14.8506C6.97046 15.0898 7.02638 15.3492 7.02169 15.6108C7.02223 15.7996 6.98567 15.9868 6.91386 16.163C6.84796 16.3347 6.75065 16.4941 6.62631 16.6343C6.49951 16.773 6.34885 16.8907 6.18062 16.9827C6.01033 17.0761 5.82234 17.1375 5.62711 17.1636V17.2554C5.87595 17.2684 6.11989 17.3257 6.34595 17.4242C6.55561 17.5151 6.74566 17.6414 6.90666 17.7968C7.0661 17.9524 7.19119 18.1359 7.27472 18.3369C7.3639 18.5465 7.40883 18.7703 7.40699 18.9959C7.41178 19.2931 7.34852 19.5878 7.22152 19.8601C7.10027 20.115 6.9171 20.3398 6.6867 20.5163C6.43613 20.7049 6.14905 20.8461 5.84132 20.9322C5.47995 21.0338 5.10428 21.0834 4.7271 21.0794L1.23633 21.074ZM2.85807 16.8112H4.07724C4.51862 16.8112 4.85362 16.7315 5.08364 16.5708C5.197 16.4927 5.28797 16.3894 5.34844 16.2702C5.4089 16.1509 5.43697 16.0195 5.43013 15.8876C5.43709 15.7584 5.41201 15.6294 5.35688 15.5109C5.30174 15.3923 5.21805 15.2874 5.1124 15.2044C4.85142 15.0268 4.53257 14.9404 4.21095 14.9599H2.85663L2.85807 16.8112ZM4.29578 19.9086C4.76448 19.9086 5.12246 19.8196 5.36688 19.6386C5.49069 19.5455 5.58877 19.4257 5.65284 19.2894C5.71691 19.153 5.74507 19.0041 5.73493 18.8554C5.74461 18.7089 5.71508 18.5625 5.64903 18.4295C5.58299 18.2965 5.48252 18.1811 5.35681 18.094C5.10377 17.9224 4.7386 17.8374 4.2584 17.8374H2.85088V19.906L4.29578 19.9086Z" fill="black"/>
<path d="M9.77836 21.1603C9.51183 21.1636 9.2467 21.1234 8.99481 21.0415C8.76857 20.9688 8.56026 20.8539 8.38234 20.7039C8.20959 20.5578 8.07272 20.3781 7.98122 20.1773C7.88304 19.9586 7.83409 19.7233 7.83745 19.486C7.82655 19.2578 7.87459 19.0306 7.97749 18.8237C8.08038 18.6168 8.23508 18.4364 8.42835 18.2978C8.82229 18.0142 9.39018 17.8517 10.132 17.8104L11.5698 17.7307V17.2783C11.5763 17.1758 11.5566 17.0732 11.5124 16.9793C11.468 16.8853 11.4005 16.8026 11.3153 16.7382C11.0967 16.5986 10.8343 16.5319 10.5706 16.5492C10.33 16.5418 10.0911 16.5881 9.87325 16.6842C9.78758 16.722 9.71072 16.7754 9.64706 16.8412C9.58341 16.907 9.53422 16.984 9.50231 17.0677H8.06461C8.08517 16.8219 8.16693 16.5842 8.30327 16.3736C8.44073 16.1631 8.62456 15.9826 8.84241 15.8444C9.08596 15.6903 9.35585 15.5765 9.64034 15.5081C9.97279 15.4279 10.315 15.3889 10.6582 15.392C11.0118 15.389 11.3638 15.4346 11.7035 15.527C11.9841 15.6007 12.2461 15.7266 12.4741 15.897C12.6796 16.0569 12.8421 16.26 12.9485 16.4898C13.0615 16.7408 13.1173 17.0113 13.1124 17.2837V21.0834H11.5942V20.357H11.4964C11.338 20.6163 11.0994 20.8245 10.812 20.9537C10.4897 21.0982 10.1355 21.169 9.77836 21.1603ZM10.2945 20.0558C10.466 20.0572 10.6366 20.0317 10.7992 19.9802C10.9458 19.9327 11.0821 19.8609 11.2017 19.7682C11.3135 19.6808 11.405 19.5728 11.4706 19.4509C11.5353 19.3284 11.5683 19.1933 11.5669 19.0566V18.6515L10.3693 18.7218C9.70313 18.765 9.36766 18.99 9.36287 19.3969C9.3591 19.492 9.38066 19.5866 9.4256 19.6719C9.47053 19.7572 9.53742 19.8307 9.62021 19.8857C9.81955 20.0092 10.0561 20.0689 10.2945 20.0558Z" fill="black"/>
<path d="M14.0938 15.509H15.6091V16.4015H15.7055C15.8328 16.0959 16.0591 15.8357 16.3524 15.6575C16.6845 15.4682 17.0684 15.3743 17.4566 15.3874C18.1151 15.3874 18.6173 15.5674 18.9634 15.9275C19.3093 16.2876 19.4818 16.8021 19.4809 17.4709V21.068H17.9181V17.8247C17.9181 17.4367 17.8294 17.145 17.6521 16.9497C17.4748 16.7544 17.2002 16.6558 16.8283 16.654C16.661 16.6512 16.4947 16.6801 16.3395 16.739C16.199 16.7946 16.0734 16.8785 15.9714 16.9848C15.866 17.0961 15.7862 17.2266 15.7371 17.3683C15.6817 17.5287 15.6545 17.6965 15.6566 17.8652V21.0734H14.0938V15.509Z" fill="black"/>
<path d="M24.1418 15.5078H25.9144L23.6587 17.8937L26.0697 21.0721H24.2222L22.497 18.8118L22.0657 19.225V21.0721H20.5V13.3838H22.0628V17.6803H22.1606L24.1418 15.5078Z" fill="black"/>
<path d="M27.3094 14.7329C27.18 14.7342 27.0514 14.7155 26.9284 14.6775C26.8233 14.6432 26.7258 14.5911 26.6409 14.5236C26.5615 14.4589 26.4982 14.3787 26.4554 14.2886C26.4117 14.1951 26.3896 14.0938 26.3907 13.9916C26.3893 13.8871 26.4112 13.7836 26.4554 13.6877C26.4979 13.5979 26.5613 13.5181 26.6409 13.4542C26.725 13.3862 26.8227 13.3347 26.9284 13.303C27.0514 13.2654 27.1801 13.2472 27.3094 13.2489C27.4378 13.247 27.5656 13.2652 27.6876 13.303C27.7933 13.3347 27.8911 13.3861 27.9751 13.4542C28.0551 13.5183 28.1194 13.5981 28.1634 13.6877C28.2087 13.7833 28.2313 13.887 28.2296 13.9916C28.2314 14.0924 28.2095 14.1923 28.1655 14.2843C28.1216 14.3762 28.0565 14.4579 27.9751 14.5236C27.8901 14.5911 27.7927 14.6432 27.6876 14.6775C27.5656 14.7157 27.4379 14.7344 27.3094 14.7329ZM26.5244 15.5092H28.0886V21.0737H26.5244V15.5092Z" fill="black"/>
<path d="M29.1152 15.5083H30.6306V16.4008H30.7269C30.8547 16.0944 31.0821 15.8336 31.3768 15.6555C31.709 15.4665 32.0928 15.3726 32.4809 15.3854C33.1394 15.3854 33.6416 15.5654 33.9876 15.9255C34.3336 16.2856 34.5062 16.8001 34.5052 17.4689V21.066H32.9396V17.824C32.9396 17.4365 32.8518 17.1489 32.6736 16.949C32.4953 16.7492 32.2221 16.6533 31.8498 16.6533C31.6824 16.6505 31.5161 16.6794 31.361 16.7384C31.2205 16.794 31.0949 16.8779 30.9929 16.9841C30.8875 17.0952 30.8081 17.2259 30.76 17.3677C30.7035 17.5278 30.6757 17.6958 30.678 17.8645V21.0727H29.1152V15.5083Z" fill="black"/>
<path d="M38.0796 23.1823C37.7179 23.1856 37.3571 23.1465 37.0056 23.0661C36.7097 22.9998 36.4274 22.888 36.1702 22.7353C35.9467 22.6037 35.7558 22.4282 35.611 22.2209C35.4719 22.018 35.388 21.7861 35.3666 21.5457H36.9136C36.9389 21.6355 36.9859 21.7186 37.0506 21.7889C37.1154 21.8591 37.1964 21.9145 37.2874 21.9508C37.5454 22.0614 37.8278 22.1132 38.1112 22.1021C38.5338 22.1021 38.8607 22.0165 39.0917 21.8455C39.2071 21.7581 39.2988 21.6461 39.359 21.5189C39.4193 21.3916 39.4464 21.2528 39.4382 21.1137V20.0847H39.3419C39.1879 20.3725 38.9428 20.6083 38.6402 20.7599C38.3049 20.9184 37.933 20.9963 37.5576 20.9867C37.2143 20.9916 36.8741 20.9252 36.5613 20.7923C36.2686 20.6646 36.011 20.4756 35.8079 20.2401C35.5899 19.9835 35.4273 19.6896 35.3292 19.3745C35.2136 19.0055 35.1573 18.6223 35.1624 18.2376C35.1574 17.8427 35.2137 17.4493 35.3292 17.0697C35.4264 16.7466 35.5895 16.4444 35.8094 16.1798C36.0152 15.9378 36.2774 15.7433 36.5757 15.6113C36.8942 15.4754 37.2409 15.4076 37.5907 15.4129C37.7847 15.4123 37.9779 15.4351 38.1658 15.4804C38.3432 15.5244 38.5138 15.5898 38.6733 15.6749C38.9842 15.8425 39.2345 16.0935 39.3922 16.3958H39.4899V15.5033H41.0038V21.0583C41.009 21.3631 40.9391 21.6648 40.7997 21.94C40.6636 22.205 40.4632 22.4362 40.2145 22.6152C39.9384 22.8103 39.6259 22.9549 39.293 23.0418C38.8977 23.1425 38.4891 23.1897 38.0796 23.1823ZM39.454 18.2444C39.4569 18.0203 39.4255 17.797 39.3606 17.5814C39.3058 17.3994 39.2146 17.2289 39.0917 17.0791C38.9785 16.9434 38.8334 16.8344 38.6676 16.7604C38.4891 16.6874 38.2965 16.6497 38.1018 16.6497C37.9072 16.6497 37.7146 16.6874 37.5361 16.7604C37.3722 16.8348 37.2291 16.9439 37.1178 17.0791C36.9967 17.2288 36.9082 17.3995 36.8575 17.5814C36.7386 18.0145 36.7386 18.4689 36.8575 18.9019C36.9085 19.0833 36.9958 19.2537 37.1149 19.4043C37.2254 19.5403 37.3695 19.6492 37.5347 19.7216C37.7122 19.7982 37.9058 19.836 38.1011 19.8322C38.2992 19.8363 38.4957 19.7985 38.6762 19.7216C38.8449 19.6496 38.9927 19.5408 39.1075 19.4043C39.2297 19.2554 39.3199 19.0857 39.3735 18.9046C39.4334 18.6892 39.4604 18.4669 39.454 18.2444Z" fill="black"/>
</g>
</svg>
