<svg width="15" height="15" viewBox="0 0 11 13" fill="none" xmlns="http://www.w3.org/2000/svg">
<path fill-rule="evenodd" clip-rule="evenodd" d="M10.5303 6.71975C10.6709 6.8604 10.7498 7.05113 10.7498 7.25C10.7498 7.44887 10.6709 7.6396 10.5303 7.78025L6.03025 12.2803C5.8896 12.4209 5.69887 12.4998 5.5 12.4998C5.30113 12.4998 5.1104 12.4209 4.96975 12.2803L0.46975 7.78025C0.398117 7.71106 0.340981 7.62831 0.301674 7.5368C0.262367 7.4453 0.241677 7.34689 0.240812 7.2473C0.239947 7.14772 0.258923 7.04896 0.296634 6.95678C0.334344 6.86461 0.390034 6.78087 0.460454 6.71045C0.530873 6.64003 0.614612 6.58434 0.706784 6.54663C0.798957 6.50892 0.897716 6.48995 0.997301 6.49081C1.09689 6.49168 1.1953 6.51237 1.2868 6.55167C1.37831 6.59098 1.46106 6.64812 1.53025 6.71975L4.75 9.9395V1.25C4.75 1.05109 4.82902 0.860322 4.96967 0.71967C5.11032 0.579018 5.30109 0.5 5.5 0.5C5.69891 0.5 5.88968 0.579018 6.03033 0.71967C6.17098 0.860322 6.25 1.05109 6.25 1.25V9.9395L9.46975 6.71975C9.6104 6.57915 9.80113 6.50016 10 6.50016C10.1989 6.50016 10.3896 6.57915 10.5303 6.71975Z" fill="#0078FF"/>
</svg>
