<svg width="40" height="40" viewBox="0 0 40 40" fill="none" xmlns="http://www.w3.org/2000/svg">
<rect width="40" height="40" rx="5" fill="#F8F8F9"/>
<path d="M15 28.3332C14.3056 28.3332 13.7153 28.0901 13.2292 27.604C12.7431 27.1179 12.5 26.5276 12.5 25.8332V23.3332H15V11.6665L16.25 12.9165L17.5 11.6665L18.75 12.9165L20 11.6665L21.25 12.9165L22.5 11.6665L23.75 12.9165L25 11.6665L26.25 12.9165L27.5 11.6665V25.8332C27.5 26.5276 27.2569 27.1179 26.7708 27.604C26.2847 28.0901 25.6944 28.3332 25 28.3332H15ZM25 26.6665C25.2361 26.6665 25.434 26.5866 25.5938 26.4269C25.7535 26.2672 25.8333 26.0693 25.8333 25.8332V14.1665H16.6667V23.3332H24.1667V25.8332C24.1667 26.0693 24.2465 26.2672 24.4062 26.4269C24.566 26.5866 24.7639 26.6665 25 26.6665ZM17.5 17.4998V15.8332H22.5V17.4998H17.5ZM17.5 19.9998V18.3332H22.5V19.9998H17.5ZM24.1667 17.4998C23.9306 17.4998 23.7326 17.42 23.5729 17.2603C23.4132 17.1005 23.3333 16.9026 23.3333 16.6665C23.3333 16.4304 23.4132 16.2325 23.5729 16.0728C23.7326 15.913 23.9306 15.8332 24.1667 15.8332C24.4028 15.8332 24.6007 15.913 24.7604 16.0728C24.9201 16.2325 25 16.4304 25 16.6665C25 16.9026 24.9201 17.1005 24.7604 17.2603C24.6007 17.42 24.4028 17.4998 24.1667 17.4998ZM24.1667 19.9998C23.9306 19.9998 23.7326 19.92 23.5729 19.7603C23.4132 19.6005 23.3333 19.4026 23.3333 19.1665C23.3333 18.9304 23.4132 18.7325 23.5729 18.5728C23.7326 18.413 23.9306 18.3332 24.1667 18.3332C24.4028 18.3332 24.6007 18.413 24.7604 18.5728C24.9201 18.7325 25 18.9304 25 19.1665C25 19.4026 24.9201 19.6005 24.7604 19.7603C24.6007 19.92 24.4028 19.9998 24.1667 19.9998ZM15 26.6665H22.5V24.9998H14.1667V25.8332C14.1667 26.0693 14.2465 26.2672 14.4062 26.4269C14.566 26.5866 14.7639 26.6665 15 26.6665Z" fill="#333333"/>
</svg>
